{
    "page": 2,
    "limit": 20,
    "total_pages": 2,
    "total_records": 22,
    "links": [
        {
            "rel": "self",
            "href": "http://secure2.roisolutions.net/api/1.0/donors/?page=2&name-last=Doe"
        },
        {
            "rel": "prev",
            "href": "http://secure2.roisolutions.net/api/1.0/donors/?page=1&name-last=Doe"
        }
    ],
    "items": [
        {
            "links": [
                {
                    "rel": "self",
                    "href": "http://secure2.roisolutions.net/api/1.0/donors/4142"
                },
                {
                    "rel": "address_others",
                    "href": "http://secure2.roisolutions.net/api/1.0/donors/4142/address-others"
                },
                {
                    "rel": "email_addresses",
                    "href": "http://secure2.roisolutions.net/api/1.0/donors/4142/emails"
                },
                {
                    "rel": "donations",
                    "href": "http://secure2.roisolutions.net/api/1.0/donors/4142/donations"
                },
                {
                    "rel": "donationsummary",
                    "href": "http://secure2.roisolutions.net/api/1.0/donors/4142/donationsummary"
                },
                {
                    "rel": "memberships",
                    "href": "http://secure2.roisolutions.net/api/1.0/donors/4142/memberships"
                },
                {
                    "rel": "submemberships",
                    "href": "http://secure2.roisolutions.net/api/1.0/donors/4142/submemberships"
                },
                {
                    "rel": "phone_numbers",
                    "href": "http://secure2.roisolutions.net/api/1.0/donors/4142/phones"
                },
                {
                    "rel": "payment_tokens",
                    "href": "http://secure2.roisolutions.net/api/1.0/donors/4142/payment-tokens"
                },
                {
                    "rel": "pledges",
                    "href": "http://secure2.roisolutions.net/api/1.0/donors/4142/pledges"
                }
            ],
            "roi_id": "4142",
            "roi_family_id": "4142",
            "origination_vendor": "ROI_CONVERSION",
            "name_last": "Doe Peck",
            "account_status": "INACTIVE",
            "modified_date": "2019-06-03T18:51:34.000Z",
            "address_line": "Doe Peck",
            "do_not_contact": "true",
            "name_full": "Doe Peck",
            "salutation": "Doe Peck"
        },
        {
            "links": [
                {
                    "rel": "self",
                    "href": "http://secure2.roisolutions.net/api/1.0/donors/4344"
                },
                {
                    "rel": "address_others",
                    "href": "http://secure2.roisolutions.net/api/1.0/donors/4344/address-others"
                },
                {
                    "rel": "email_addresses",
                    "href": "http://secure2.roisolutions.net/api/1.0/donors/4344/emails"
                },
                {
                    "rel": "donations",
                    "href": "http://secure2.roisolutions.net/api/1.0/donors/4344/donations"
                },
                {
                    "rel": "donationsummary",
                    "href": "http://secure2.roisolutions.net/api/1.0/donors/4344/donationsummary"
                },
                {
                    "rel": "memberships",
                    "href": "http://secure2.roisolutions.net/api/1.0/donors/4344/memberships"
                },
                {
                    "rel": "submemberships",
                    "href": "http://secure2.roisolutions.net/api/1.0/donors/4344/submemberships"
                },
                {
                    "rel": "phone_numbers",
                    "href": "http://secure2.roisolutions.net/api/1.0/donors/4344/phones"
                },
                {
                    "rel": "payment_tokens",
                    "href": "http://secure2.roisolutions.net/api/1.0/donors/4344/payment-tokens"
                },
                {
                    "rel": "pledges",
                    "href": "http://secure2.roisolutions.net/api/1.0/donors/4344/pledges"
                }
            ],
            "roi_id": "4344",
            "roi_family_id": "4344",
            "origination_vendor": "ROI_CONVERSION",
            "name_first": "Judith",
            "name_last": "Doe",
            "account_status": "ACTIVE",
            "account_added_date": "2022-02-23T16:51:14.000Z",
            "modified_date": "2023-02-03T20:59:00.000Z",
            "address_line": "Judith Doe",
            "do_not_contact": "false",
            "name_full": "Judith Doe",
            "salutation": "Judith Doe"
        }
    ]
}
